<?xml version="1.0" encoding="UTF-8"?>
<session version="1.0">
<refactoring comment="Delete 8 resources" deleteContents="false" description="Delete 8 resources" element1="/assignment-one" element2="/assignment-three" element3="/client" element4="/consumer-client" element5="/producer-client" element6="/protocol" element7="/queue-server" element8="/server" flags="7" id="org.eclipse.ltk.core.refactoring.delete.resources" resources="8" stamp="1448962711600"/>
</session>